<?xml version="1.0" encoding="UTF-8"?>
<glyph name="uni261D" format="2">
  <advance width="369"/>
  <unicode hex="261D"/>
  <outline>
    <contour>
      <point x="216" y="-34" type="curve" smooth="yes"/>
      <point x="218" y="-41" type="line"/>
      <point x="63" y="-119" type="line"/>
      <point x="58" y="-52"/>
      <point x="60" y="18"/>
      <point x="49" y="80" type="curve" smooth="yes"/>
      <point x="38" y="142"/>
      <point x="38" y="196"/>
      <point x="38" y="228" type="curve" smooth="yes"/>
      <point x="39" y="259"/>
      <point x="46" y="285"/>
      <point x="43" y="322" type="curve" smooth="yes"/>
      <point x="40" y="361"/>
      <point x="40" y="413"/>
      <point x="41" y="440" type="curve" smooth="yes"/>
      <point x="41" y="466"/>
      <point x="57" y="587"/>
      <point x="62" y="592" type="curve" smooth="yes"/>
      <point x="63" y="595"/>
      <point x="68" y="593"/>
      <point x="70" y="590" type="curve" smooth="yes"/>
      <point x="74" y="583"/>
      <point x="70" y="579"/>
      <point x="72" y="573" type="curve" smooth="yes"/>
      <point x="77" y="567"/>
      <point x="92" y="549"/>
      <point x="93" y="534" type="curve" smooth="yes"/>
      <point x="92" y="473" type="line"/>
      <point x="100" y="425"/>
      <point x="122" y="344"/>
      <point x="128" y="328" type="curve" smooth="yes"/>
      <point x="131" y="323"/>
      <point x="148" y="341"/>
      <point x="169" y="343" type="curve" smooth="yes"/>
      <point x="191" y="341"/>
      <point x="190" y="332"/>
      <point x="196" y="331" type="curve" smooth="yes"/>
      <point x="229" y="324"/>
      <point x="254" y="308"/>
      <point x="252" y="270" type="curve"/>
      <point x="271" y="287"/>
      <point x="281" y="303"/>
      <point x="296" y="309" type="curve" smooth="yes"/>
      <point x="332" y="316" type="line" smooth="yes"/>
      <point x="337" y="318"/>
      <point x="338" y="324"/>
      <point x="340" y="325" type="curve" smooth="yes"/>
      <point x="344" y="325"/>
      <point x="349" y="326"/>
      <point x="349" y="326" type="curve" smooth="yes"/>
      <point x="361" y="326"/>
      <point x="262" y="202"/>
      <point x="258" y="155" type="curve" smooth="yes"/>
      <point x="252" y="88"/>
      <point x="213" y="73"/>
      <point x="205" y="43" type="curve" smooth="yes"/>
      <point x="193" y="5"/>
      <point x="217" y="-29"/>
    </contour>
    <contour>
      <point x="151" y="241" type="curve" smooth="yes"/>
      <point x="151" y="234"/>
      <point x="155" y="226"/>
      <point x="160" y="218" type="curve" smooth="yes"/>
      <point x="162" y="214"/>
      <point x="168" y="209"/>
      <point x="171" y="208" type="curve" smooth="yes"/>
      <point x="178" y="209"/>
      <point x="182" y="223"/>
      <point x="185" y="231" type="curve" smooth="yes"/>
      <point x="190" y="248"/>
      <point x="188" y="253"/>
      <point x="183" y="259" type="curve" smooth="yes"/>
      <point x="179" y="265"/>
      <point x="172" y="270"/>
      <point x="164" y="268" type="curve" smooth="yes"/>
      <point x="153" y="266"/>
      <point x="150" y="254"/>
    </contour>
  </outline>
  <lib>
    <dict>
      <key>com.fontlab.hintData</key>
      <dict>
        <key>hhints</key>
        <array>
          <dict>
            <key>position</key>
            <integer>-119</integer>
            <key>width</key>
            <integer>712</integer>
          </dict>
          <dict>
            <key>position</key>
            <integer>268</integer>
            <key>width</key>
            <integer>75</integer>
          </dict>
        </array>
        <key>vhints</key>
        <array>
          <dict>
            <key>position</key>
            <integer>41</integer>
            <key>width</key>
            <integer>52</integer>
          </dict>
          <dict>
            <key>position</key>
            <integer>62</integer>
            <key>width</key>
            <integer>8</integer>
          </dict>
          <dict>
            <key>position</key>
            <integer>63</integer>
            <key>width</key>
            <integer>139</integer>
          </dict>
          <dict>
            <key>position</key>
            <integer>185</integer>
            <key>width</key>
            <integer>67</integer>
          </dict>
          <dict>
            <key>position</key>
            <integer>188</integer>
            <key>width</key>
            <integer>64</integer>
          </dict>
        </array>
      </dict>
    </dict>
  </lib>
</glyph>
