<?xml version="1.0" encoding="UTF-8"?>
<glyph name="uni0053" format="2">
  <advance width="468"/>
  <unicode hex="0053"/>
  <outline>
    <contour>
      <point x="190.971" y="215.462" type="curve"/>
      <point x="62.251" y="215.461" type="line"/>
      <point x="62.251" y="117.523" type="line"/>
      <point x="61.3174" y="117.523"/>
      <point x="71.5781" y="-0.933594"/>
      <point x="222.681" y="-0.933594" type="curve" smooth="yes"/>
      <point x="392.439" y="-0.933594"/>
      <point x="407.362" y="128.717"/>
      <point x="407.362" y="128.717" type="curve"/>
      <point x="407.362" y="286.35" type="line" smooth="yes"/>
      <point x="405.498" y="399.211"/>
      <point x="191.901" y="378.69"/>
      <point x="191.901" y="455.175" type="curve"/>
      <point x="191.901" y="455.175"/>
      <point x="183.507" y="518.601"/>
      <point x="234.808" y="518.601" type="curve" smooth="yes"/>
      <point x="280.512" y="518.601"/>
      <point x="279.579" y="481.291"/>
      <point x="278.646" y="481.291" type="curve"/>
      <point x="278.646" y="451.444" type="line"/>
      <point x="409.229" y="451.444" type="line"/>
      <point x="408.296" y="451.444"/>
      <point x="435.343" y="654.053"/>
      <point x="238.539" y="652.915" type="curve" smooth="yes"/>
      <point x="77.1758" y="651.982"/>
      <point x="58.5205" y="516.735"/>
      <point x="58.5205" y="516.735" type="curve"/>
      <point x="58.5205" y="419.731" type="line" smooth="yes"/>
      <point x="58.5205" y="235.05"/>
      <point x="276.781" y="328.323"/>
      <point x="276.781" y="208.933" type="curve" smooth="yes"/>
      <point x="276.781" y="208"/>
      <point x="281.445" y="138.045"/>
      <point x="227.347" y="140.843" type="curve" smooth="yes"/>
      <point x="177.911" y="140.843"/>
      <point x="190.971" y="215.462"/>
    </contour>
  </outline>
  <lib>
    <dict>
      <key>com.fontlab.hintData</key>
      <dict>
        <key>hhints</key>
        <array>
          <dict>
            <key>position</key>
            <integer>-1</integer>
            <key>width</key>
            <integer>142</integer>
          </dict>
          <dict>
            <key>position</key>
            <integer>519</integer>
            <key>width</key>
            <integer>134</integer>
          </dict>
        </array>
        <key>vhints</key>
        <array>
          <dict>
            <key>position</key>
            <integer>277</integer>
            <key>width</key>
            <integer>131</integer>
          </dict>
        </array>
      </dict>
    </dict>
  </lib>
</glyph>
