<?xml version="1.0" encoding="UTF-8"?>
<glyph name="Ecircumflex" format="2">
  <advance width="437"/>
  <unicode hex="00CA"/>
  <outline>
    <contour>
      <point x="157.331" y="627.306" type="line"/>
      <point x="167.417" y="703.954" type="line"/>
      <point x="297.518" y="774.551" type="line"/>
      <point x="413.498" y="725.133" type="line"/>
      <point x="374.166" y="643.442" type="line"/>
      <point x="279.364" y="685.801" type="line"/>
      <point x="196.664" y="628.314" type="line"/>
      <point x="234.315" y="628.987"/>
      <point x="305.249" y="629.322"/>
      <point x="409.463" y="629.322" type="curve"/>
      <point x="393.327" y="500.23" type="line"/>
      <point x="257.175" y="495.188" type="line"/>
      <point x="240.03" y="378.199" type="line"/>
      <point x="374.165" y="382.232" type="line"/>
      <point x="353.994" y="257.175" type="line"/>
      <point x="215.825" y="253.141" type="line"/>
      <point x="201.706" y="136.151" type="line"/>
      <point x="334.832" y="139.177" type="line"/>
      <point x="307.602" y="4.03418" type="line"/>
      <point x="30.2559" y="1.00879" type="line"/>
      <point x="40.3408" y="56.1416"/>
      <point x="73.623" y="264.907"/>
      <point x="130.101" y="627.306" type="curve"/>
    </contour>
  </outline>
  <lib>
    <dict>
      <key>com.fontlab.hintData</key>
      <dict>
        <key>hhints</key>
        <array>
          <dict>
            <key>position</key>
            <integer>4</integer>
            <key>width</key>
            <integer>132</integer>
          </dict>
          <dict>
            <key>position</key>
            <integer>253</integer>
            <key>width</key>
            <integer>125</integer>
          </dict>
          <dict>
            <key>position</key>
            <integer>495</integer>
            <key>width</key>
            <integer>133</integer>
          </dict>
        </array>
      </dict>
    </dict>
  </lib>
</glyph>
