<?xml version="1.0" encoding="UTF-8"?>
<glyph name="ograve" format="2">
  <advance width="492"/>
  <unicode hex="00F2"/>
  <outline>
    <contour>
      <point x="228.937" y="417.531" type="curve"/>
      <point x="227.931" y="417.528" type="line"/>
      <point x="222.552" y="402.064"/>
      <point x="213.812" y="358.362"/>
      <point x="201.709" y="286.421" type="curve" smooth="yes"/>
      <point x="190.279" y="218.514"/>
      <point x="184.563" y="179.854"/>
      <point x="184.563" y="170.44" type="curve" smooth="yes"/>
      <point x="184.563" y="149.598"/>
      <point x="194.649" y="139.176"/>
      <point x="214.82" y="139.176" type="curve" smooth="yes"/>
      <point x="234.317" y="139.176"/>
      <point x="248.773" y="144.555"/>
      <point x="258.186" y="155.312" type="curve" smooth="yes"/>
      <point x="265.581" y="163.381"/>
      <point x="269.279" y="172.458"/>
      <point x="269.279" y="182.543" type="curve" smooth="yes"/>
      <point x="269.279" y="185.232"/>
      <point x="268.943" y="189.603"/>
      <point x="268.271" y="195.654" type="curve" smooth="yes"/>
      <point x="315.672" y="457.872" type="line"/>
      <point x="309.621" y="463.25"/>
      <point x="301.217" y="465.939"/>
      <point x="290.459" y="465.939" type="curve" smooth="yes"/>
      <point x="277.684" y="465.939"/>
      <point x="264.908" y="460.729"/>
      <point x="252.134" y="450.308" type="curve" smooth="yes"/>
      <point x="239.358" y="439.887"/>
      <point x="231.626" y="428.961"/>
    </contour>
    <contour>
      <point x="172.462" y="721.096" type="line"/>
      <point x="315.674" y="721.097" type="line"/>
      <point x="338.87" y="624.278" type="line"/>
      <point x="412.828" y="627.64"/>
      <point x="454.514" y="591.668"/>
      <point x="463.927" y="516.364" type="curve"/>
      <point x="448.463" y="420.218"/>
      <point x="426.611" y="291.799"/>
      <point x="398.372" y="131.106" type="curve" smooth="yes"/>
      <point x="391.648" y="94.7998"/>
      <point x="376.856" y="63.5352"/>
      <point x="353.996" y="37.3135" type="curve" smooth="yes"/>
      <point x="320.379" y="-0.337891"/>
      <point x="273.65" y="-19.1641"/>
      <point x="213.812" y="-19.1641" type="curve" smooth="yes"/>
      <point x="100.184" y="-19.1641"/>
      <point x="41.3525" y="22.5215"/>
      <point x="37.3184" y="105.894" type="curve" smooth="yes"/>
      <point x="36.6455" y="112.617"/>
      <point x="36.6455" y="119.678"/>
      <point x="37.3184" y="127.073" type="curve" smooth="yes"/>
      <point x="37.9912" y="135.813"/>
      <point x="38.3271" y="144.218"/>
      <point x="38.3271" y="152.286" type="curve" smooth="yes"/>
      <point x="38.3271" y="160.354"/>
      <point x="42.6973" y="193.636"/>
      <point x="51.4375" y="252.131" type="curve" smooth="yes"/>
      <point x="62.1963" y="328.106"/>
      <point x="75.6426" y="398.703"/>
      <point x="91.7793" y="463.922" type="curve" smooth="yes"/>
      <point x="100.521" y="500.901"/>
      <point x="121.195" y="535.696"/>
      <point x="153.804" y="568.305" type="curve" smooth="yes"/>
      <point x="186.412" y="600.913"/>
      <point x="218.854" y="617.89"/>
      <point x="251.127" y="619.234" type="curve"/>
    </contour>
  </outline>
  <lib>
    <dict>
      <key>com.fontlab.hintData</key>
      <dict>
        <key>hhints</key>
        <array>
          <dict>
            <key>position</key>
            <integer>-19</integer>
            <key>width</key>
            <integer>158</integer>
          </dict>
        </array>
        <key>vhints</key>
        <array>
          <dict>
            <key>position</key>
            <integer>38</integer>
            <key>width</key>
            <integer>146</integer>
          </dict>
        </array>
      </dict>
    </dict>
  </lib>
</glyph>
