<?xml version="1.0" encoding="UTF-8"?>
<glyph name="seven" format="2">
  <advance width="448"/>
  <unicode hex="0037"/>
  <outline>
    <contour>
      <point x="437.702" y="474.009" type="line"/>
      <point x="160.357" y="-11.0938" type="line"/>
      <point x="115.31" y="-9.74902"/>
      <point x="70.5977" y="-8.74121"/>
      <point x="26.2227" y="-8.06836" type="curve" smooth="yes"/>
      <point x="-2.68848" y="-6.72363"/>
      <point x="-20.5068" y="-4.70703"/>
      <point x="-27.2305" y="-2.0166" type="curve"/>
      <point x="215.825" y="455.855" type="line"/>
      <point x="62.5293" y="453.839" type="line"/>
      <point x="78.665" y="615.203" type="line"/>
      <point x="442.745" y="609.152" type="line"/>
    </contour>
  </outline>
  <lib>
    <dict>
      <key>com.fontlab.hintData</key>
      <dict>
        <key>hhints</key>
        <array>
          <dict>
            <key>position</key>
            <integer>-11</integer>
            <key>width</key>
            <integer>21</integer>
          </dict>
          <dict>
            <key>position</key>
            <integer>456</integer>
            <key>width</key>
            <integer>159</integer>
          </dict>
        </array>
      </dict>
    </dict>
  </lib>
</glyph>
