<?xml version="1.0" encoding="UTF-8"?>
<glyph name="uni2728" format="2">
  <advance width="437"/>
  <unicode hex="2728"/>
  <outline>
    <contour>
      <point x="408.11" y="632.223" type="line"/>
      <point x="407.841" y="622.095"/>
      <point x="407.469" y="612.426"/>
      <point x="407.256" y="610.737" type="curve" smooth="yes"/>
      <point x="407.056" y="609.05"/>
      <point x="406.731" y="604.631"/>
      <point x="406.561" y="600.916" type="curve" smooth="yes"/>
      <point x="406.392" y="597.203"/>
      <point x="405.979" y="589.33"/>
      <point x="405.643" y="583.422" type="curve" smooth="yes"/>
      <point x="403.803" y="551.099"/>
      <point x="403.196" y="534.165"/>
      <point x="402.897" y="507" type="curve" smooth="yes"/>
      <point x="402.729" y="490.457"/>
      <point x="402.424" y="466.425"/>
      <point x="402.249" y="453.597" type="curve" smooth="yes"/>
      <point x="402.08" y="440.767"/>
      <point x="401.661" y="408.035"/>
      <point x="401.333" y="380.856" type="curve" smooth="yes"/>
      <point x="400.739" y="331.443" type="line"/>
      <point x="399.494" y="320.396" type="line" smooth="yes"/>
      <point x="398.809" y="314.317"/>
      <point x="397.851" y="307.136"/>
      <point x="397.365" y="304.435" type="curve" smooth="yes"/>
      <point x="395.779" y="295.569"/>
      <point x="394.67" y="289.81"/>
      <point x="393.113" y="282.337" type="curve" smooth="yes"/>
      <point x="392.269" y="278.285"/>
      <point x="391.135" y="272.347"/>
      <point x="390.594" y="269.139" type="curve" smooth="yes"/>
      <point x="390.052" y="265.932"/>
      <point x="388.616" y="259.303"/>
      <point x="387.403" y="254.407" type="curve" smooth="yes"/>
      <point x="386.188" y="249.512"/>
      <point x="385.119" y="243.572"/>
      <point x="385.026" y="241.209" type="curve" smooth="yes"/>
      <point x="384.926" y="238.847"/>
      <point x="384.822" y="236.589"/>
      <point x="384.822" y="236.192" type="curve" smooth="yes"/>
      <point x="384.822" y="235.795"/>
      <point x="384.124" y="234.691"/>
      <point x="383.327" y="233.737" type="curve" smooth="yes"/>
      <point x="382.348" y="232.567"/>
      <point x="381.73" y="230.807"/>
      <point x="381.424" y="228.33" type="curve" smooth="yes"/>
      <point x="381.189" y="226.31"/>
      <point x="380.472" y="223.271"/>
      <point x="379.859" y="221.577" type="curve" smooth="yes"/>
      <point x="379.249" y="219.884"/>
      <point x="377.728" y="214.079"/>
      <point x="376.484" y="208.677" type="curve" smooth="yes"/>
      <point x="374.551" y="200.304"/>
      <point x="371.08" y="185.481"/>
      <point x="368.827" y="175.98" type="curve" smooth="yes"/>
      <point x="368.488" y="174.541"/>
      <point x="368.204" y="172.416"/>
      <point x="368.204" y="171.26" type="curve" smooth="yes"/>
      <point x="368.204" y="170.104"/>
      <point x="367.969" y="169.003"/>
      <point x="367.656" y="168.816" type="curve" smooth="yes"/>
      <point x="367.354" y="168.631"/>
      <point x="366.961" y="167.44"/>
      <point x="366.78" y="166.173" type="curve" smooth="yes"/>
      <point x="366.425" y="163.695"/>
      <point x="365.195" y="157.68"/>
      <point x="363.326" y="149.288" type="curve" smooth="yes"/>
      <point x="363.023" y="147.853"/>
      <point x="362.58" y="145.851"/>
      <point x="362.374" y="144.838" type="curve" smooth="yes"/>
      <point x="362.173" y="143.824"/>
      <point x="361.719" y="141.753"/>
      <point x="361.375" y="140.233" type="curve" smooth="yes"/>
      <point x="361.032" y="138.715"/>
      <point x="360.478" y="136.229"/>
      <point x="360.145" y="134.709" type="curve" smooth="yes"/>
      <point x="359.81" y="133.189"/>
      <point x="359.295" y="130.979"/>
      <point x="359.005" y="129.799" type="curve" smooth="yes"/>
      <point x="358.456" y="127.578"/>
      <point x="358.026" y="125.419"/>
      <point x="355.928" y="114.453" type="curve" smooth="yes"/>
      <point x="354.345" y="106.169"/>
      <point x="353.5" y="101.859"/>
      <point x="352.858" y="98.7998" type="curve" smooth="yes"/>
      <point x="352.589" y="97.4492"/>
      <point x="352.023" y="94.6875"/>
      <point x="351.63" y="92.6611" type="curve" smooth="yes"/>
      <point x="351.24" y="90.6357"/>
      <point x="350.686" y="87.875"/>
      <point x="350.403" y="86.5225" type="curve" smooth="yes"/>
      <point x="350.134" y="85.1738"/>
      <point x="349.565" y="82.4111"/>
      <point x="349.165" y="80.3857" type="curve" smooth="yes"/>
      <point x="348.159" y="75.248"/>
      <point x="347.302" y="70.9902"/>
      <point x="346.701" y="68.1084" type="curve" smooth="yes"/>
      <point x="346.432" y="66.7588"/>
      <point x="345.877" y="63.8574"/>
      <point x="345.492" y="61.6631" type="curve" smooth="yes"/>
      <point x="345.11" y="59.4688"/>
      <point x="344.552" y="56.5684"/>
      <point x="344.253" y="55.2188" type="curve" smooth="yes"/>
      <point x="343.949" y="53.8682"/>
      <point x="343.388" y="51.2422"/>
      <point x="342.992" y="49.3857" type="curve" smooth="yes"/>
      <point x="342.595" y="47.5293"/>
      <point x="342.047" y="45.3203"/>
      <point x="341.774" y="44.4746" type="curve" smooth="yes"/>
      <point x="341.505" y="43.6328"/>
      <point x="340.416" y="40.041"/>
      <point x="339.363" y="36.4961" type="curve" smooth="yes"/>
      <point x="338.311" y="32.9502"/>
      <point x="337.188" y="29.416"/>
      <point x="336.868" y="28.6406" type="curve" smooth="yes"/>
      <point x="336.532" y="27.8662"/>
      <point x="336.286" y="26.5693"/>
      <point x="336.286" y="25.7607" type="curve" smooth="yes"/>
      <point x="336.286" y="24.9521"/>
      <point x="336.018" y="24.1211"/>
      <point x="335.671" y="23.9121" type="curve" smooth="yes"/>
      <point x="335.331" y="23.7021"/>
      <point x="335.056" y="22.7432"/>
      <point x="335.056" y="21.7783" type="curve" smooth="yes"/>
      <point x="335.056" y="19.082"/>
      <point x="331.037" y="11.9463"/>
      <point x="327.819" y="8.92578" type="curve" smooth="yes"/>
      <point x="326.229" y="7.43555"/>
      <point x="323.297" y="5.15723"/>
      <point x="321.305" y="3.8623" type="curve" smooth="yes"/>
      <point x="317.681" y="1.50781" type="line"/>
      <point x="314.313" y="1.50781" type="line" smooth="yes"/>
      <point x="306.476" y="1.50781"/>
      <point x="301.604" y="4.28418"/>
      <point x="291.156" y="14.7041" type="curve" smooth="yes"/>
      <point x="286.082" y="19.7637"/>
      <point x="277.476" y="30.7539"/>
      <point x="274.947" y="35.3984" type="curve" smooth="yes"/>
      <point x="271.406" y="41.9092"/>
      <point x="267.546" y="49.7617"/>
      <point x="267.539" y="50.4678" type="curve" smooth="yes"/>
      <point x="267.539" y="50.8945"/>
      <point x="267.271" y="51.7236"/>
      <point x="266.98" y="52.3105" type="curve" smooth="yes"/>
      <point x="266.091" y="54.0234"/>
      <point x="264.799" y="59.5947"/>
      <point x="263.252" y="68.4141" type="curve" smooth="yes"/>
      <point x="262.529" y="72.5166"/>
      <point x="261.746" y="75.8955"/>
      <point x="260.74" y="79.2002" type="curve" smooth="yes"/>
      <point x="260.438" y="80.2373"/>
      <point x="260.165" y="81.6201"/>
      <point x="260.157" y="82.2695" type="curve" smooth="yes"/>
      <point x="260.157" y="82.9219"/>
      <point x="259.704" y="84.6973"/>
      <point x="259.153" y="86.2168" type="curve" smooth="yes"/>
      <point x="257.32" y="91.2842"/>
      <point x="255.776" y="100.963"/>
      <point x="254.062" y="118.135" type="curve" smooth="yes"/>
      <point x="253.726" y="121.344"/>
      <point x="253.18" y="126.177"/>
      <point x="252.814" y="128.878" type="curve" smooth="yes"/>
      <point x="249.809" y="151.063"/>
      <point x="248.987" y="160.48"/>
      <point x="247.938" y="184.737" type="curve" smooth="yes"/>
      <point x="247.212" y="201.562"/>
      <point x="247.538" y="213.631"/>
      <point x="250.326" y="273.437" type="curve" smooth="yes"/>
      <point x="251.24" y="293.103"/>
      <point x="252.868" y="314.151"/>
      <point x="253.976" y="320.701" type="curve" smooth="yes"/>
      <point x="255.004" y="326.784"/>
      <point x="255.885" y="332.611"/>
      <point x="256.285" y="335.983" type="curve" smooth="yes"/>
      <point x="256.675" y="339.296" type="line"/>
      <point x="254.892" y="338.861" type="line" smooth="yes"/>
      <point x="253.91" y="338.62"/>
      <point x="251.866" y="338.18"/>
      <point x="250.346" y="337.88" type="curve" smooth="yes"/>
      <point x="246.441" y="337.106"/>
      <point x="243.008" y="336.393"/>
      <point x="235.614" y="334.819" type="curve" smooth="yes"/>
      <point x="232.069" y="334.067"/>
      <point x="227.928" y="333.187"/>
      <point x="226.407" y="332.867" type="curve" smooth="yes"/>
      <point x="223.979" y="332.355"/>
      <point x="218.61" y="331.452"/>
      <point x="205.229" y="329.302" type="curve" smooth="yes"/>
      <point x="203.205" y="328.975"/>
      <point x="196.85" y="328.138"/>
      <point x="191.112" y="327.436" type="curve" smooth="yes"/>
      <point x="185.373" y="326.737"/>
      <point x="178.604" y="325.901"/>
      <point x="176.071" y="325.583" type="curve" smooth="yes"/>
      <point x="154.137" y="322.828"/>
      <point x="121.932" y="323.371"/>
      <point x="101.799" y="326.835" type="curve" smooth="yes"/>
      <point x="97.459" y="327.583"/>
      <point x="90.4336" y="329.082"/>
      <point x="87.6797" y="329.848" type="curve" smooth="yes"/>
      <point x="86.499" y="330.178"/>
      <point x="84.1514" y="330.772"/>
      <point x="82.4639" y="331.169" type="curve" smooth="yes"/>
      <point x="79.0039" y="331.984"/>
      <point x="75.6924" y="332.925"/>
      <point x="73.8682" y="333.61" type="curve" smooth="yes"/>
      <point x="73.1924" y="333.863"/>
      <point x="71.2598" y="334.495"/>
      <point x="69.5713" y="335.014" type="curve" smooth="yes"/>
      <point x="52.9102" y="340.12"/>
      <point x="36.7119" y="348.942"/>
      <point x="28.0957" y="357.606" type="curve" smooth="yes"/>
      <point x="23.0684" y="362.664"/>
      <point x="22" y="364.834"/>
      <point x="22" y="369.979" type="curve" smooth="yes"/>
      <point x="22" y="375.952"/>
      <point x="22.9209" y="377.797"/>
      <point x="29.8105" y="385.626" type="curve" smooth="yes"/>
      <point x="34.7715" y="391.267"/>
      <point x="36.4326" y="392.778"/>
      <point x="41.334" y="396.118" type="curve" smooth="yes"/>
      <point x="43.6982" y="397.729"/>
      <point x="47.29" y="400.177"/>
      <point x="49.3145" y="401.558" type="curve" smooth="yes"/>
      <point x="53.6826" y="404.536"/>
      <point x="61.3359" y="408.116"/>
      <point x="83.123" y="417.377" type="curve" smooth="yes"/>
      <point x="91.748" y="421.042"/>
      <point x="105.495" y="425.419"/>
      <point x="120.52" y="429.28" type="curve" smooth="yes"/>
      <point x="124.571" y="430.321"/>
      <point x="130.511" y="431.876"/>
      <point x="133.718" y="432.731" type="curve" smooth="yes"/>
      <point x="158.602" y="439.381"/>
      <point x="178.397" y="444.013"/>
      <point x="192.952" y="446.593" type="curve" smooth="yes"/>
      <point x="194.979" y="446.952"/>
      <point x="197.879" y="447.48"/>
      <point x="199.397" y="447.769" type="curve" smooth="yes"/>
      <point x="200.918" y="448.056"/>
      <point x="204.371" y="448.604"/>
      <point x="207.072" y="448.987" type="curve" smooth="yes"/>
      <point x="209.771" y="449.372"/>
      <point x="213.639" y="449.935"/>
      <point x="215.663" y="450.24" type="curve" smooth="yes"/>
      <point x="217.69" y="450.544"/>
      <point x="221.834" y="451.102"/>
      <point x="224.87" y="451.476" type="curve" smooth="yes"/>
      <point x="227.91" y="451.852"/>
      <point x="232.191" y="452.405"/>
      <point x="234.387" y="452.707" type="curve" smooth="yes"/>
      <point x="236.583" y="453.01"/>
      <point x="245.127" y="453.574"/>
      <point x="253.383" y="453.96" type="curve" smooth="yes"/>
      <point x="268.387" y="454.663" type="line"/>
      <point x="271.03" y="455.796" type="line"/>
      <point x="273.673" y="456.931" type="line"/>
      <point x="273.673" y="459.377" type="line" smooth="yes"/>
      <point x="273.673" y="460.722"/>
      <point x="273.908" y="463.149"/>
      <point x="274.225" y="464.77" type="curve" smooth="yes"/>
      <point x="274.527" y="466.391"/>
      <point x="275.085" y="469.649"/>
      <point x="275.469" y="472.013" type="curve" smooth="yes"/>
      <point x="275.853" y="474.377"/>
      <point x="276.451" y="477.829"/>
      <point x="276.797" y="479.685" type="curve" smooth="yes"/>
      <point x="277.147" y="481.542"/>
      <point x="277.679" y="484.443"/>
      <point x="277.983" y="486.131" type="curve" smooth="yes"/>
      <point x="278.287" y="487.818"/>
      <point x="278.999" y="491.548"/>
      <point x="279.561" y="494.418" type="curve" smooth="yes"/>
      <point x="280.123" y="497.287"/>
      <point x="280.812" y="500.879"/>
      <point x="281.089" y="502.398" type="curve" smooth="yes"/>
      <point x="281.356" y="503.918"/>
      <point x="281.858" y="506.403"/>
      <point x="282.181" y="507.922" type="curve" smooth="yes"/>
      <point x="282.517" y="509.441"/>
      <point x="283.068" y="512.203"/>
      <point x="283.435" y="514.062" type="curve" smooth="yes"/>
      <point x="283.802" y="515.918"/>
      <point x="284.354" y="518.541"/>
      <point x="284.656" y="519.892" type="curve" smooth="yes"/>
      <point x="284.958" y="521.242"/>
      <point x="285.395" y="523.313"/>
      <point x="285.621" y="524.497" type="curve" smooth="yes"/>
      <point x="285.856" y="525.677"/>
      <point x="286.552" y="528.854"/>
      <point x="287.188" y="531.555" type="curve" smooth="yes"/>
      <point x="287.82" y="534.255"/>
      <point x="289.212" y="540.194"/>
      <point x="290.277" y="544.753" type="curve" smooth="yes"/>
      <point x="291.348" y="549.31"/>
      <point x="292.466" y="553.519"/>
      <point x="292.766" y="554.104" type="curve" smooth="yes"/>
      <point x="293.069" y="554.692"/>
      <point x="293.313" y="555.715"/>
      <point x="293.313" y="556.378" type="curve" smooth="yes"/>
      <point x="293.313" y="557.042"/>
      <point x="293.583" y="558.221"/>
      <point x="293.899" y="558.995" type="curve" smooth="yes"/>
      <point x="294.202" y="559.77"/>
      <point x="295.366" y="563.306"/>
      <point x="296.445" y="566.85" type="curve" smooth="yes"/>
      <point x="299.253" y="576.078"/>
      <point x="304.896" y="593.169"/>
      <point x="305.86" y="595.368" type="curve" smooth="yes"/>
      <point x="306.311" y="596.394"/>
      <point x="307.293" y="598.893"/>
      <point x="308.046" y="600.918" type="curve" smooth="yes"/>
      <point x="308.8" y="602.943"/>
      <point x="309.775" y="605.431"/>
      <point x="310.219" y="606.443" type="curve" smooth="yes"/>
      <point x="310.658" y="607.456"/>
      <point x="311.563" y="609.665"/>
      <point x="312.229" y="611.353" type="curve" smooth="yes"/>
      <point x="314.093" y="616.092"/>
      <point x="321.648" y="631.629"/>
      <point x="324.914" y="637.441" type="curve" smooth="yes"/>
      <point x="326.527" y="640.311"/>
      <point x="328.603" y="644.066"/>
      <point x="329.527" y="645.787" type="curve" smooth="yes"/>
      <point x="330.452" y="647.507"/>
      <point x="332.624" y="651.017"/>
      <point x="334.359" y="653.586" type="curve" smooth="yes"/>
      <point x="336.091" y="656.154"/>
      <point x="337.511" y="658.375"/>
      <point x="337.511" y="658.521" type="curve" smooth="yes"/>
      <point x="337.511" y="658.669"/>
      <point x="339.739" y="662.062"/>
      <point x="342.464" y="666.067" type="curve" smooth="yes"/>
      <point x="345.185" y="670.074"/>
      <point x="351.127" y="678.875"/>
      <point x="355.662" y="685.627" type="curve" smooth="yes"/>
      <point x="360.198" y="692.38"/>
      <point x="364.809" y="698.895"/>
      <point x="365.904" y="700.106" type="curve" smooth="yes"/>
      <point x="373.296" y="708.272"/>
      <point x="385.733" y="712.097"/>
      <point x="393.601" y="708.617" type="curve" smooth="yes"/>
      <point x="395.16" y="707.926"/>
      <point x="396.438" y="707.117"/>
      <point x="396.438" y="706.82" type="curve" smooth="yes"/>
      <point x="396.438" y="706.522"/>
      <point x="396.791" y="705.914"/>
      <point x="397.225" y="705.468" type="curve" smooth="yes"/>
      <point x="401.264" y="701.311"/>
      <point x="404.293" y="691.663"/>
      <point x="406.848" y="674.822" type="curve" smooth="yes"/>
      <point x="408.386" y="664.706"/>
      <point x="408.686" y="654.678"/>
      <point x="408.118" y="632.225" type="curve"/>
    </contour>
  </outline>
  <lib>
    <dict>
      <key>com.fontlab.hintData</key>
      <dict>
        <key>hhints</key>
        <array>
          <dict>
            <key>position</key>
            <integer>2</integer>
            <key>width</key>
            <integer>21</integer>
          </dict>
        </array>
        <key>vhints</key>
        <array>
          <dict>
            <key>position</key>
            <integer>248</integer>
            <key>width</key>
            <integer>120</integer>
          </dict>
          <dict>
            <key>position</key>
            <integer>250</integer>
            <key>width</key>
            <integer>134</integer>
          </dict>
          <dict>
            <key>position</key>
            <integer>256</integer>
            <key>width</key>
            <integer>141</integer>
          </dict>
          <dict>
            <key>position</key>
            <integer>268</integer>
            <key>width</key>
            <integer>68</integer>
          </dict>
          <dict>
            <key>position</key>
            <integer>274</integer>
            <key>width</key>
            <integer>129</integer>
          </dict>
          <dict>
            <key>position</key>
            <integer>293</integer>
            <key>width</key>
            <integer>110</integer>
          </dict>
          <dict>
            <key>position</key>
            <integer>338</integer>
            <key>width</key>
            <integer>71</integer>
          </dict>
        </array>
      </dict>
    </dict>
  </lib>
</glyph>
