<?xml version="1.0" encoding="UTF-8"?>
<glyph name="copyright" format="2">
  <advance width="672"/>
  <unicode hex="00A9"/>
  <outline>
    <contour>
      <point x="328.902" y="652.924" type="curve" smooth="yes"/>
      <point x="372.495" y="654.876"/>
      <point x="411.046" y="650.479"/>
      <point x="444.555" y="639.743" type="curve" smooth="yes"/>
      <point x="478.062" y="629.008"/>
      <point x="506.528" y="613.718"/>
      <point x="529.952" y="593.873" type="curve" smooth="yes"/>
      <point x="553.375" y="574.028"/>
      <point x="571.594" y="550.769"/>
      <point x="584.606" y="524.092" type="curve" smooth="yes"/>
      <point x="597.618" y="497.416"/>
      <point x="605.427" y="469.112"/>
      <point x="608.029" y="439.183" type="curve"/>
      <point x="471.394" y="438.207" type="line"/>
      <point x="472.045" y="445.363"/>
      <point x="473.021" y="452.195"/>
      <point x="474.321" y="458.702" type="curve" smooth="yes"/>
      <point x="475.622" y="463.907"/>
      <point x="476.599" y="469.111"/>
      <point x="477.249" y="474.316" type="curve" smooth="yes"/>
      <point x="477.9" y="479.521"/>
      <point x="478.226" y="483.101"/>
      <point x="478.226" y="485.053" type="curve" smooth="yes"/>
      <point x="478.226" y="490.257"/>
      <point x="477.249" y="498.064"/>
      <point x="475.298" y="508.476" type="curve" smooth="yes"/>
      <point x="473.346" y="518.887"/>
      <point x="468.953" y="529.134"/>
      <point x="462.122" y="539.219" type="curve" smooth="yes"/>
      <point x="455.29" y="549.304"/>
      <point x="445.205" y="558.25"/>
      <point x="431.867" y="566.058" type="curve" smooth="yes"/>
      <point x="418.528" y="573.865"/>
      <point x="400.798" y="577.77"/>
      <point x="378.676" y="577.77" type="curve" smooth="yes"/>
      <point x="355.903" y="577.77"/>
      <point x="336.384" y="574.679"/>
      <point x="320.117" y="568.498" type="curve" smooth="yes"/>
      <point x="303.851" y="562.317"/>
      <point x="290.188" y="554.509"/>
      <point x="279.127" y="545.074" type="curve" smooth="yes"/>
      <point x="268.065" y="535.64"/>
      <point x="259.282" y="525.229"/>
      <point x="252.775" y="513.843" type="curve" smooth="yes"/>
      <point x="246.269" y="502.456"/>
      <point x="242.04" y="491.558"/>
      <point x="240.088" y="481.146" type="curve" smooth="yes"/>
      <point x="231.304" y="435.764" type="line" smooth="yes"/>
      <point x="227.4" y="415.92"/>
      <point x="223.659" y="394.937"/>
      <point x="220.08" y="372.813" type="curve" smooth="yes"/>
      <point x="216.501" y="350.691"/>
      <point x="213.41" y="329.383"/>
      <point x="210.808" y="308.888" type="curve" smooth="yes"/>
      <point x="208.205" y="288.393"/>
      <point x="206.903" y="272.614"/>
      <point x="206.903" y="261.554" type="curve" smooth="yes"/>
      <point x="206.903" y="250.492"/>
      <point x="208.205" y="239.432"/>
      <point x="210.808" y="228.371" type="curve" smooth="yes"/>
      <point x="213.41" y="217.311"/>
      <point x="218.453" y="207.388"/>
      <point x="225.937" y="198.604" type="curve" smooth="yes"/>
      <point x="233.419" y="189.82"/>
      <point x="243.667" y="182.664"/>
      <point x="256.679" y="177.133" type="curve" smooth="yes"/>
      <point x="269.691" y="171.602"/>
      <point x="286.608" y="168.837"/>
      <point x="307.429" y="168.837" type="curve" smooth="yes"/>
      <point x="328.249" y="168.837"/>
      <point x="346.468" y="172.904"/>
      <point x="362.083" y="181.037" type="curve" smooth="yes"/>
      <point x="377.698" y="189.17"/>
      <point x="390.874" y="198.441"/>
      <point x="401.609" y="208.852" type="curve" smooth="yes"/>
      <point x="412.346" y="219.263"/>
      <point x="420.804" y="229.673"/>
      <point x="426.985" y="240.084" type="curve" smooth="yes"/>
      <point x="433.166" y="250.494"/>
      <point x="437.232" y="257.651"/>
      <point x="439.185" y="261.556" type="curve" smooth="yes"/>
      <point x="441.137" y="266.11"/>
      <point x="443.251" y="272.291"/>
      <point x="445.528" y="280.099" type="curve" smooth="yes"/>
      <point x="452.36" y="304.498" type="line" smooth="yes"/>
      <point x="454.637" y="312.957"/>
      <point x="456.426" y="321.09"/>
      <point x="457.728" y="328.897" type="curve" smooth="yes"/>
      <point x="459.028" y="336.705"/>
      <point x="459.679" y="343.537"/>
      <point x="459.679" y="349.393" type="curve"/>
      <point x="363.058" y="349.393" type="line"/>
      <point x="362.407" y="338.332"/>
      <point x="360.78" y="328.897"/>
      <point x="358.177" y="321.09" type="curve" smooth="yes"/>
      <point x="355.574" y="313.933"/>
      <point x="351.833" y="307.426"/>
      <point x="346.953" y="301.57" type="curve" smooth="yes"/>
      <point x="342.073" y="295.714"/>
      <point x="335.079" y="292.786"/>
      <point x="325.97" y="292.786" type="curve" smooth="yes"/>
      <point x="320.766" y="292.786"/>
      <point x="317.024" y="294.087"/>
      <point x="314.747" y="296.69" type="curve" smooth="yes"/>
      <point x="312.471" y="299.293"/>
      <point x="310.844" y="302.384"/>
      <point x="309.867" y="305.963" type="curve" smooth="yes"/>
      <point x="308.892" y="309.542"/>
      <point x="308.566" y="313.282"/>
      <point x="308.892" y="317.187" type="curve" smooth="yes"/>
      <point x="309.217" y="321.09"/>
      <point x="309.705" y="324.669"/>
      <point x="310.355" y="327.922" type="curve" smooth="yes"/>
      <point x="311.007" y="331.826"/>
      <point x="312.471" y="339.471"/>
      <point x="314.747" y="350.857" type="curve" smooth="yes"/>
      <point x="317.024" y="362.244"/>
      <point x="319.627" y="374.119"/>
      <point x="322.556" y="386.481" type="curve" smooth="yes"/>
      <point x="325.483" y="398.844"/>
      <point x="328.086" y="410.393"/>
      <point x="330.363" y="421.128" type="curve" smooth="yes"/>
      <point x="334.755" y="442.111" type="line" smooth="yes"/>
      <point x="336.056" y="448.618"/>
      <point x="339.146" y="454.962"/>
      <point x="344.026" y="461.143" type="curve" smooth="yes"/>
      <point x="348.906" y="467.324"/>
      <point x="355.25" y="470.415"/>
      <point x="363.058" y="470.415" type="curve" smooth="yes"/>
      <point x="368.914" y="470.415"/>
      <point x="372.98" y="468.3"/>
      <point x="375.258" y="464.071" type="curve" smooth="yes"/>
      <point x="377.534" y="459.842"/>
      <point x="378.674" y="455.125"/>
      <point x="378.674" y="449.92" type="curve" smooth="yes"/>
      <point x="378.674" y="444.064"/>
      <point x="378.022" y="437.558"/>
      <point x="376.722" y="430.4" type="curve"/>
      <point x="607.051" y="431.377" type="line"/>
      <point x="607.701" y="422.269"/>
      <point x="607.864" y="412.833"/>
      <point x="607.539" y="403.073" type="curve" smooth="yes"/>
      <point x="607.215" y="393.314"/>
      <point x="606.401" y="383.879"/>
      <point x="605.101" y="374.771" type="curve" smooth="yes"/>
      <point x="599.244" y="336.383"/>
      <point x="589.81" y="300.923"/>
      <point x="576.797" y="268.391" type="curve" smooth="yes"/>
      <point x="563.785" y="235.858"/>
      <point x="546.38" y="207.23"/>
      <point x="524.584" y="182.507" type="curve" smooth="yes"/>
      <point x="502.787" y="157.782"/>
      <point x="475.785" y="137.774"/>
      <point x="443.578" y="122.484" type="curve" smooth="yes"/>
      <point x="411.371" y="107.193"/>
      <point x="373.146" y="98.2471"/>
      <point x="328.902" y="95.6445" type="curve" smooth="yes"/>
      <point x="278.803" y="92.3916"/>
      <point x="235.535" y="98.084"/>
      <point x="199.099" y="112.724" type="curve" smooth="yes"/>
      <point x="162.663" y="127.363"/>
      <point x="132.896" y="147.695"/>
      <point x="109.798" y="173.722" type="curve" smooth="yes"/>
      <point x="86.6992" y="199.748"/>
      <point x="70.4326" y="230.166"/>
      <point x="60.998" y="264.976" type="curve" smooth="yes"/>
      <point x="51.5635" y="299.786"/>
      <point x="48.7988" y="336.385"/>
      <point x="52.7021" y="374.772" type="curve" smooth="yes"/>
      <point x="56.6064" y="413.812"/>
      <point x="65.3896" y="449.922"/>
      <point x="79.0537" y="483.105" type="curve" smooth="yes"/>
      <point x="92.7168" y="516.288"/>
      <point x="111.098" y="545.242"/>
      <point x="134.196" y="569.967" type="curve" smooth="yes"/>
      <point x="157.294" y="594.69"/>
      <point x="185.109" y="614.21"/>
      <point x="217.642" y="628.524" type="curve" smooth="yes"/>
      <point x="250.173" y="642.839"/>
      <point x="287.26" y="650.972"/>
    </contour>
  </outline>
  <lib>
    <dict>
      <key>com.fontlab.hintData</key>
      <dict>
        <key>hhints</key>
        <array>
          <dict>
            <key>position</key>
            <integer>96</integer>
            <key>width</key>
            <integer>73</integer>
          </dict>
          <dict>
            <key>position</key>
            <integer>349</integer>
            <key>width</key>
            <integer>81</integer>
          </dict>
          <dict>
            <key>position</key>
            <integer>450</integer>
            <key>width</key>
            <integer>20</integer>
          </dict>
          <dict>
            <key>position</key>
            <integer>578</integer>
            <key>width</key>
            <integer>75</integer>
          </dict>
        </array>
        <key>vhints</key>
        <array>
          <dict>
            <key>position</key>
            <integer>53</integer>
            <key>width</key>
            <integer>154</integer>
          </dict>
          <dict>
            <key>position</key>
            <integer>335</integer>
            <key>width</key>
            <integer>44</integer>
          </dict>
        </array>
      </dict>
    </dict>
  </lib>
</glyph>
