<?xml version="1.0" encoding="UTF-8"?>
<glyph name="daggerdbl" format="2">
  <advance width="429"/>
  <unicode hex="2021"/>
  <outline>
    <contour>
      <point x="45.8701" y="286.936" type="line"/>
      <point x="131.756" y="286.936" type="line"/>
      <point x="147.371" y="383.557" type="line"/>
      <point x="58.5586" y="383.557" type="line"/>
      <point x="79.0537" y="513.36" type="line"/>
      <point x="168.843" y="513.36" type="line"/>
      <point x="191.29" y="649.021" type="line"/>
      <point x="337.686" y="649.996" type="line"/>
      <point x="314.263" y="513.36" type="line"/>
      <point x="410.884" y="513.36" type="line"/>
      <point x="390.388" y="383.557" type="line"/>
      <point x="292.791" y="383.557" type="line"/>
      <point x="276.199" y="285.959" type="line"/>
      <point x="376.725" y="285.959" type="line"/>
      <point x="356.229" y="157.131" type="line"/>
      <point x="254.729" y="157.131" type="line"/>
      <point x="228.377" y="-0.975586" type="line"/>
      <point x="83.9336" y="-0.975586" type="line"/>
      <point x="110.284" y="157.131" type="line"/>
      <point x="24.3994" y="157.131" type="line"/>
    </contour>
  </outline>
  <lib>
    <dict>
      <key>com.fontlab.hintData</key>
      <dict>
        <key>hhints</key>
        <array>
          <dict>
            <key>position</key>
            <integer>-1</integer>
            <key>width</key>
            <integer>21</integer>
          </dict>
          <dict>
            <key>position</key>
            <integer>157</integer>
            <key>width</key>
            <integer>129</integer>
          </dict>
          <dict>
            <key>position</key>
            <integer>384</integer>
            <key>width</key>
            <integer>130</integer>
          </dict>
        </array>
      </dict>
    </dict>
  </lib>
</glyph>
