<?xml version="1.0" encoding="UTF-8"?>
<glyph name="Iacute" format="2">
  <advance width="317"/>
  <unicode hex="00CD"/>
  <outline>
    <contour>
      <point x="35.1348" y="-0.975586" type="line"/>
      <point x="142.491" y="649.996" type="line"/>
      <point x="197.146" y="650.972" type="line"/>
      <point x="215.689" y="762.232" type="line"/>
      <point x="331.83" y="762.232" type="line"/>
      <point x="259.608" y="649.996" type="line"/>
      <point x="289.863" y="649.996" type="line"/>
      <point x="179.578" y="-0.975586" type="line"/>
    </contour>
  </outline>
  <lib>
    <dict>
      <key>com.fontlab.hintData</key>
      <dict>
        <key>hhints</key>
        <array>
          <dict>
            <key>position</key>
            <integer>-1</integer>
            <key>width</key>
            <integer>21</integer>
          </dict>
        </array>
        <key>vhints</key>
        <array>
          <dict>
            <key>position</key>
            <integer>35</integer>
            <key>width</key>
            <integer>297</integer>
          </dict>
        </array>
      </dict>
    </dict>
  </lib>
</glyph>
