<?xml version="1.0" encoding="UTF-8"?>
<glyph name="questiondown" format="2">
  <advance width="492"/>
  <unicode hex="00BF"/>
  <outline>
    <contour>
      <point x="324.998" y="236.185" type="line"/>
      <point x="323.046" y="230.329"/>
      <point x="319.796" y="223.008"/>
      <point x="315.241" y="214.225" type="curve" smooth="yes"/>
      <point x="310.687" y="205.44"/>
      <point x="304.993" y="196.982"/>
      <point x="298.162" y="188.85" type="curve" smooth="yes"/>
      <point x="291.33" y="180.717"/>
      <point x="283.522" y="173.722"/>
      <point x="274.738" y="167.866" type="curve" smooth="yes"/>
      <point x="265.955" y="162.01"/>
      <point x="256.683" y="159.082"/>
      <point x="246.923" y="159.082" type="curve" smooth="yes"/>
      <point x="239.115" y="159.082"/>
      <point x="230.657" y="162.173"/>
      <point x="221.548" y="168.354" type="curve" smooth="yes"/>
      <point x="212.439" y="174.535"/>
      <point x="207.885" y="184.782"/>
      <point x="207.885" y="199.097" type="curve" smooth="yes"/>
      <point x="207.885" y="206.254"/>
      <point x="212.113" y="215.851"/>
      <point x="220.572" y="227.887" type="curve" smooth="yes"/>
      <point x="229.031" y="239.924"/>
      <point x="239.441" y="252.774"/>
      <point x="251.804" y="266.438" type="curve" smooth="yes"/>
      <point x="264.167" y="280.102"/>
      <point x="277.18" y="293.603"/>
      <point x="290.843" y="306.94" type="curve" smooth="yes"/>
      <point x="304.507" y="320.279"/>
      <point x="316.218" y="332.479"/>
      <point x="325.978" y="343.539" type="curve" smooth="yes"/>
      <point x="341.594" y="360.456"/>
      <point x="354.118" y="381.765"/>
      <point x="363.553" y="407.465" type="curve" smooth="yes"/>
      <point x="372.987" y="433.165"/>
      <point x="380.632" y="461.631"/>
      <point x="386.488" y="492.862" type="curve"/>
      <point x="227.405" y="492.862" type="line"/>
      <point x="218.946" y="455.124"/>
      <point x="206.096" y="424.544"/>
      <point x="188.854" y="401.121" type="curve" smooth="yes"/>
      <point x="171.61" y="377.697"/>
      <point x="152.904" y="356.227"/>
      <point x="132.733" y="336.707" type="curve" smooth="yes"/>
      <point x="106.058" y="310.681"/>
      <point x="85.5625" y="285.306"/>
      <point x="71.248" y="260.581" type="curve" smooth="yes"/>
      <point x="56.9336" y="235.856"/>
      <point x="49.7764" y="207.229"/>
      <point x="49.7764" y="174.696" type="curve" smooth="yes"/>
      <point x="49.7764" y="166.238"/>
      <point x="51.0771" y="152.411"/>
      <point x="53.6807" y="133.217" type="curve" smooth="yes"/>
      <point x="56.2832" y="114.022"/>
      <point x="63.6025" y="94.5029"/>
      <point x="75.6396" y="74.6592" type="curve" smooth="yes"/>
      <point x="87.6758" y="54.8145"/>
      <point x="106.057" y="37.4102"/>
      <point x="130.781" y="22.4453" type="curve" smooth="yes"/>
      <point x="155.505" y="7.48047"/>
      <point x="189.989" y="-0.00195312"/>
      <point x="234.232" y="-0.00195312" type="curve" smooth="yes"/>
      <point x="265.464" y="-0.00195312"/>
      <point x="293.442" y="6.0166"/>
      <point x="318.166" y="18.0537" type="curve" smooth="yes"/>
      <point x="342.891" y="30.0898"/>
      <point x="364.199" y="44.7295"/>
      <point x="382.091" y="61.9727" type="curve" smooth="yes"/>
      <point x="399.983" y="79.2148"/>
      <point x="414.136" y="96.9453"/>
      <point x="424.546" y="115.163" type="curve" smooth="yes"/>
      <point x="434.957" y="133.382"/>
      <point x="441.464" y="148.673"/>
      <point x="444.066" y="161.035" type="curve"/>
    </contour>
    <contour>
      <point x="231.308" y="517.263" type="line"/>
      <point x="255.707" y="649.995" type="line"/>
      <point x="410.886" y="649.995" type="line"/>
      <point x="390.391" y="517.263" type="line"/>
    </contour>
  </outline>
  <lib>
    <dict>
      <key>com.fontlab.hintData</key>
      <dict>
        <key>hhints</key>
        <array>
          <dict>
            <key>position</key>
            <integer>0</integer>
            <key>width</key>
            <integer>159</integer>
          </dict>
          <dict>
            <key>position</key>
            <integer>517</integer>
            <key>width</key>
            <integer>133</integer>
          </dict>
        </array>
        <key>vhints</key>
        <array>
          <dict>
            <key>position</key>
            <integer>50</integer>
            <key>width</key>
            <integer>158</integer>
          </dict>
        </array>
      </dict>
    </dict>
  </lib>
</glyph>
